{
"designTypeColors":{
		"Gensokyo":[255,160,200,255],
		},
"graphics":{

		"blueprint_packages":{
			"thquest_gen_package":"graphics/thQuest/factions/flag_gensokyo.png",
			},
"illustrations":{
"thQuest_test":"graphics/thQuest/illustrations/thabandoned_station.jpg",

},
"characters":{
"thQuest_yum":"graphics/thQuest/portraits/yumemi.png",
"thQuest_chi":"graphics/thQuest/portraits/chiyuri.png",
"thQuest_rei":"graphics/thQuest/portraits/reimu.png",
"thQuest_yuk":"graphics/thQuest/portraits/yukari.png"
},
"misc":{
	"thquest_master_spark_core":"graphics/thQuest/fx/master_spark_core.png",
	"thquest_master_spark_fringe":"graphics/thQuest/fx/master_spark_fringe.png",
	},
"intel":{
"thQuest_visit_object":"graphics/icons/missions/visit_object.png"
}
},

}
