name,id,designation,tech/manufacturer,system id,fleet pts,hitpoints,armor rating,max flux,8/6/5/4%,flux dissipation,ordnance points,fighter bays,max speed,acceleration,deceleration,max turn rate,turn acceleration,mass,shield type,defense id,shield arc,shield upkeep,shield efficiency,phase cost,phase upkeep,min crew,max crew,cargo,fuel,fuel/ly,range,max burn,base value,cr %/day,CR to deploy,peak CR sec,CR loss/sec,supplies/rec,supplies/mo,c/s,c/f,f/s,f/f,crew/s,crew/f,hints,tags,rarity,breakProb,minPieces,maxPieces,travel drive,number
Moon Rocket,thquest_moon_rocket,Freighter,Gensokyo,burndrive,2,600,100,1000,1000,80,27,,180,90,80,90,120,125,OMNI,,120,0.5,1,,,2,15,50,15,0.5,30,10,4000,5,20,180,0.25,2,2,25,100,,,,,"CIVILIAN, FREIGHTER","thquest_gen_bp, independent",,0.5,2,2,,203.5
Moon Rocket Mk.II,thquest_moon_rocket_2,Small Carrier,Gensokyo,burndrive,4,1000,200,2000,1500,150,50,1,180,90,80,90,120,200,OMNI,,120,0.5,1,,,5,10,20,10,0.5,20,10,8000,5,20,180,0.25,4,4,25,100,,,,,,"thquest_gen_bp, independent",,0.5,2,2,,203.5
Fairy Maid,thquest_fairy_maid,,Gensokyo,,,200,30,500,,100,0,,350,500,250,360,300,3,NONE,,0,0,0,,,0,0,,,,,,,,,,,,,,,,,,,,,,0,,,,99.9
Palanquin Ship,thquest_palanquin_ship,Destroyer,Gensokyo,ammofeed,10,3000,700,5000,4000,450,100,,130,40,30,40,40,1000,OMNI,,120,0.5,1.5,,,50,100,100,60,2,30,9,40000,5,12,360,0.25,10,10,,,,,,,,"thquest_gen_bp, independent",,0.5,2,3,,203.5
Paragon(sawed-off),thquest_halfgon,Battleship,Gensokyo,microburn,30,13000,1500,20000,21250,950,300,,50,25,20,10,10,2500,OMNI,,360,0.6,0.6,,,400,1000,300,300,10,30,8,400000,4,20,720,0.25,60,60,,,,,,,,rare_bp,,0.6,2,4,,504
Sunflower Fairy,thquest_sunflower_fairy,,Gensokyo,,,350,40,300,,100,0,,300,400,200,300,300,5,NONE,,0,0,0,,,0,0,,,,,,,,,,,,,,,,,,,,,,0,,,,999
Probability Space Hypervessel,thquest_psh,Exploration Craft,Gensokyo,phaseteleporter,40,15000,1600,25000,31250,1250,450,,0,0,0,30,5,4000,OMNI,,180,0.5,1,,,350,1400,1000,1000,10,100,7,500000,4,15,720,0.25,40,40,,,,,,,,rare_bp,,0.5,2,4,,6
Aurora(myon),thquest_aurora_myon,Cruiser,Gensokyo,thquest_youmu_non,17,8000,850,11000,16000,800,165,,100,60,30,30,30,1800,OMNI,,180,0.5,0.9,,,75,200,150,90,3,30,8,200000,4,20,420,0.25,30,30,,,,,,,,"rare_bp, merc",,0.6,2,3,,405
